91 223 0.030 8 15
91 224 0.063 8 15
91 225 0.10 8 15
91 226 0.24 8 15
91 227 0.48 8 15
91 228 0.88 8 15
91 229 1.47 8 15
91 230 2.88 8 15
91 231 4.12 8 15
91 232 6.13 8 15
91 233 8.81 8 15
91 234 10.0 8 15
91 236 19.9 8 15
91 237 27.5 8 15
