# Z A sigma(mb)

27	53	0.003
27	54	0.057
27	55	0.469
27	56	0.59
26	51	0.019
26	52	0.402
26	53	3.727
26	54	22.727
26	55	54.768
25	49	0.018
25	50	0.374
25	51	4.343
25	52	17.71
25	53	40.651
25	54	41.84
25	55	29.756
25	56	0.271
24	47	0.044
24	48	0.766
24	49	5.783
24	50	22.449
24	51	31.49
24	52	38.552
24	53	8.893
24	54	2.645
24	55	0.02
23	45	0.031
23	46	0.594
23	47	5.641
23	48	17.719
23	49	26.631
23	50	18.421
23	51	6.066
23	52	0.919
23	53	0.147
23	54	0.002
22	43	0.05
22	44	1.019
22	45	6.441
22	46	19.816
22	47	20.876
22	48	17.146
22	49	3.418
22	50	0.837
22	51	0.059
22	52	0.005
21	41	0.013
21	42	0.563
21	43	5.205
21	44	13.467
21	45	14.669
21	46	7.989
21	47	2.332
21	48	0.385
21	49	0.052
21	50	0.002
20	39	0.037
20	40	1.113
20	41	5.964
20	42	12.082
20	43	11.067
20	44	6.514
20	45	1.225
20	46	0.248
20	47	0.026
20	48	0.002
19	37	0.022
19	38	0.486
19	39	4.35
19	40	7.761
19	41	6.143
19	42	2.632
19	43	0.771
19	44	0.13
19	45	0.019
18	35	0.034
18	36	0.92
18	37	3.77
18	38	7.292
18	39	4.599
18	40	1.539
18	41	0.345
18	42	0.062
18	43	0.008
17	33	0.015
17	34	0.429
17	35	3.025
17	36	3.906
17	37	3.414
17	38	0.764
17	39	0.183
17	40	0.027
16	31	0.03
16	32	0.799
16	33	2.61
16	34	4.44
16	35	1.809
16	36	0.485
16	37	0.068
16	38	0.012
15	29	0.015
15	30	0.367
15	31	1.73
15	32	2.069
15	33	1.051
15	34	0.213
15	35	0.036
15	36	0.003
14	27	0.025
14	28	0.797
14	29	1.459
14	30	3.061
14	31	0.597
14	32	0.162
14	33	0.013
13	25	0.008
13	26	0.247
13	27	1.08
13	28	1.276
13	29	0.373
13	30	0.081
13	31	0.009
12	23	0.009
12	24	0.345
12	25	0.728
12	26	1.323
12	27	0.201
12	28	0.035
11	22	0.11
11	23	0.591
11	24	0.555
11	25	0.194
11	26	0.023
10	22	0.475
10	23	0.122
10	24	0.014
