9	20	3.117
11	24	3.424
12	25	3.629
12	26	4.503
12	27	4.647
13	28	3.933
14	29	4.082
14	30	3.321
14	31	4.590
15	33	4.777
16	33	4.422
16	34	4.657
16	35	5.045
17	36	4.381
17	38	5.949
18	41	7.100
19	40	5.146
19	42	5.347
20	41	6.165
20	43	6.999
20	44	7.357
20	45	7.297
21	46	6.834
22	47	6.328
22	48	6.922
22	49	7.170
22	50	6.691
22	51	6.643
23	51	6.654
23	52	6.876
24	51	6.794
24	53	6.621
24	54	7.046
24	55	7.717
25	56	7.538
26	55	6.636
26	57	7.507
26	58	7.609
26	59	8.586
27	60	8.095
28	59	7.208
28	60	7.292
28	61	8.135
28	62	7.818
28	63	9.004
28	65	9.736
29	64	8.382
29	66	8.839
30	65	9.599
30	67	10.433
30	68	9.737
30	69	11.049
30	71	11.814
31	70	9.843
31	72	11.055
32	71	12.230
32	73	12.561
32	74	12.038
32	75	12.087
32	77	12.302
33	76	12.169
34	75	12.751
34	77	12.847
34	78	11.981
34	79	12.059
34	81	12.539
34	83	12.815
35	80	12.217
35	82	11.683
36	79	12.792
36	81	13.417
36	84	10.255
36	85	12.962
37	86	9.896
37	88	10.247
38	85	12.435
38	87	10.120
38	88	9.321
38	89	9.876
39	90	9.354
40	91	10.626
40	92	11.460
40	93	12.039
40	94	13.870
40	95	12.667
40	97	12.196
41	94	12.351
42	93	10.610
42	95	12.467
42	96	12.947
42	97	13.733
42	98	14.263
42	99	15.731
42	101	17.628
43	100	15.877
44	100	14.132
44	102	15.351
44	103	16.133
44	105	18.097
45	104	15.622
46	105	15.662
46	106	15.596
46	107	16.722
46	108	16.128
46	109	18.445
46	111	20.064
47	108	15.824
47	110	17.287
48	107	15.035
48	109	16.372
48	111	16.755
48	112	16.331
48	113	17.468
48	114	16.699
48	115	18.174
48	117	18.347
49	114	15.140
49	116	16.541
50	113	15.277
50	115	14.803
50	117	15.545
50	118	15.102
50	119	16.192
50	120	14.804
50	121	15.179
50	123	15.738
50	125	14.141
51	122	16.472
51	124	16.017
52	123	17.394
52	124	16.681
52	125	17.690
52	126	16.099
52	127	16.604
52	129	16.638
52	131	15.849
53	128	16.385
53	130	15.837
54	129	16.553
54	130	15.906
54	131	17.390
54	132	15.198
54	133	15.884
54	135	14.834
55	134	15.659
55	135	14.505
55	136	14.542
56	131	17.671
56	133	17.349
56	135	15.926
56	136	15.243
56	137	14.312
56	138	13.473
56	139	14.591
57	139	13.637
57	140	15.655
58	137	18.063
58	141	16.054
58	142	17.830
58	143	18.917
59	142	15.630
60	143	16.601
60	144	17.293
60	145	18.791
60	146	19.192
60	147	21.249
60	148	23.232
60	149	23.708
60	151	22.386
61	148	20.503
62	145	15.637
62	148	19.799
62	149	21.436
62	150	21.828
62	151	24.109
62	152	22.662
62	153	23.032
62	155	21.523
63	152	23.324
63	153	20.355
63	154	22.242
63	155	20.487
63	156	20.175
64	153	24.195
64	155	23.507
64	156	21.642
64	157	22.372
64	158	21.413
64	159	21.811
64	161	21.107
65	160	20.803
66	157	23.950
66	159	21.553
66	161	22.357
66	162	21.417
66	163	21.375
66	164	21.065
66	165	21.495
67	166	20.366
68	163	23.310
68	165	22.305
68	167	21.877
68	168	21.303
68	169	21.424
68	171	21.781
69	170	20.419
69	171	21.169
70	169	23.539
70	170	21.125
70	171	21.676
70	172	22.211
70	173	21.049
70	174	21.474
70	175	21.186
70	177	21.838
71	176	21.045
71	177	21.303
72	175	22.610
72	177	22.703
72	178	22.868
72	179	22.408
72	180	22.176
72	181	22.849
73	181	23.176
73	182	21.211
73	183	21.774
74	181	22.610
74	183	22.087
74	184	22.817
74	185	23.324
74	187	24.069
75	186	21.901
75	188	22.333
76	187	23.254
76	188	23.153
76	189	23.613
76	190	22.840
76	191	23.427
76	193	23.074
77	192	23.015
77	193	22.183
77	194	21.562
78	193	24.046
78	195	20.265
78	196	20.721
78	197	20.023
78	199	20.999
79	198	19.033
80	199	19.934
80	200	17.999
80	201	17.898
80	202	17.361
81	204	15.509
81	206	11.719
82	205	15.033
82	207	11.154
82	208	10.331
82	209	12.359
83	210	13.318
88	227	32.061
90	229	32.769
90	230	29.743
90	231	31.824
90	233	32.427
91	232	29.719
91	234	30.692
92	233	30.332
92	234	29.814
92	235	30.322
92	236	31.352
92	237	30.736
92	238	31.317
92	239	31.800
93	238	28.883
93	239	30.205
94	239	29.313
94	240	30.498
94	241	30.646
94	242	31.867
94	243	31.642
94	245	32.846
95	242	28.714
95	243	28.378
95	244	29.005
96	243	28.133
96	244	29.393
96	245	29.380
96	246	29.220
96	247	29.000
96	248	29.937
96	249	31.758
97	250	29.520
98	250	29.566
98	251	31.643
98	253	31.354
