  0.09875     8.8700     0.30000 
  0.16000     13.600     1.9000  
  0.16520     15.800     0.20000 
  0.17600     17.700     0.90000 
  0.18101     21.000     8.0000  
  0.18900     21.200     1.0000  
  0.18980     23.120     0.15000 
  0.19100     22.200     2.0000  
  0.20400     28.000     0.80000 
  0.20600     29.300     1.2000  
  0.20930     31.000     9.0000  
  0.21220     33.740     0.19000 
  0.21870     38.440     0.18000 
  0.21885     33.400     3.2000  
  0.22000     38.600     0.70000 
  0.22200     39.300     1.1000  
  0.22740     44.480     0.21000 
  0.23063     42.700     2.0000  
  0.23413     46.900     2.4000  
  0.23600     47.700     0.80000 
  0.23645     52.000     6.0000  
  0.23800     50.300     1.2000  
  0.24330     55.350     0.20000 
  0.24684     48.100     4.5000  
  0.25100     58.200     0.70000 
  0.25300     59.100     0.80000 
  0.25371     55.300     1.6000  
  0.25599     63.700     2.0000  
  0.25599     60.700     3.0000  
  0.25599     60.000     3.2000  
  0.26021     56.400     2.0000  
  0.26168     62.900     2.4000  
  0.26460     67.900     0.25000 
  0.26600     66.200     0.60000 
  0.26800     68.100     0.90000 
  0.27040     70.260     0.25000 
  0.27071     67.500     1.5000  
  0.27520     63.000     4.0000  
  0.27536     67.200     1.1000  
  0.27600     71.000     0.90000 
  0.27632     62.700     1.9000  
  0.27920     70.740     0.25000 
  0.28100     71.900     0.60000 
  0.28285     67.200     1.1000  
  0.28300     72.200     0.80000 
  0.28303     66.000     6.0000  
  0.28637     65.900     2.5000  
  0.29033     67.700     1.0000  
  0.29100     70.600     0.80000 
  0.29260     69.760     0.24000 
  0.29303     63.500     1.6000  
  0.29552     67.800     0.80000 
  0.29600     68.800     0.60000 
  0.29800     68.800     0.80000 
  0.30242     64.000     1.0000  
  0.30297     64.600     2.5000  
  0.30297     74.000     5.0000  
  0.30407     63.100     2.5000  
  0.30600     65.500     0.80000 
  0.30760     63.800     1.0000  
  0.31100     62.300     0.60000 
  0.31293     59.300     1.0000  
  0.31300     62.700     0.70000 
  0.31811     58.700     1.1000  
  0.31930     59.430     0.22000 
  0.31941     57.200     2.9000  
  0.32050     64.000     5.0000  
  0.32330     55.600     1.0000  
  0.32594     55.500     2.2000  
  0.32700     55.000     0.50000 
  0.32800     56.400     0.70000 
  0.32812     60.000     6.0000  
  0.32812     54.500     5.0000  
  0.32848     52.200     1.0000  
  0.33138     53.200     1.5000  
  0.33138     52.100     2.3000  
  0.33367     50.200     0.90000 
  0.33571     50.500     2.1000  
  0.33728     48.200     0.90000 
  0.33788     52.900     1.4000  
  0.34074     49.000     0.90000 
  0.34100     48.800     0.40000 
  0.34220     58.000     9.0000  
  0.34300     48.800     0.50000 
  0.34436     44.500     0.90000 
  0.34500     47.060     0.18000 
  0.34797     44.900     0.90000 
  0.34867     46.100     2.4000  
  0.34985     48.300     3.3000  
  0.35144     42.700     0.90000 
  0.35298     43.500     2.3000  
  0.35491     43.100     0.90000 
  0.35600     42.900     0.40000 
  0.35800     41.500     0.50000 
  0.35853     41.000     0.90000 
  0.36201     39.300     0.90000 
  0.36549     39.800     0.80000 
  0.36911     38.800     0.80000 
  0.36950     38.460     0.14000 
  0.37100     38.100     0.60000 
  0.37227     38.200     2.4000  
  0.37274     36.800     0.80000 
  0.37300     38.300     0.50000 
  0.37812     35.600     0.80000 
  0.38176     36.500     2.4000  
  0.38351     33.400     0.80000 
  0.38600     33.300     0.40000 
  0.38890     31.100     0.80000 
  0.39430     32.400     0.80000 
  0.39971     31.600     0.80000 
  0.40100     31.100     0.40000 
  0.40512     30.500     0.80000 
  0.40626     33.000     2.0000  
  0.40640     29.970     0.11000 
  0.41055     29.300     0.80000 
  0.41500     30.830     0.20000 
  0.41600     29.000     0.30000 
  0.41612     28.900     0.80000 
  0.42156     28.100     0.80000 
  0.42407     30.200     1.8000      
  0.42716     28.700     0.70000 
  0.42736     27.700     0.70000 
  0.42736     27.890     0.67000 
  0.43000     27.800     0.40000 
  0.43262     27.000     0.60000 
  0.43500     28.190     0.17000 
  0.43809     26.200     0.60000 
  0.44311     26.800     1.2000  
  0.44312     26.400     0.60000 
  0.44500     27.000     0.20000 
  0.44935     26.000     0.60000 
  0.45500     26.730     0.15000 
  0.45881     25.980     0.62000 
  0.46000     26.600     0.20000 
  0.46065     24.900     1.0000  
  0.46925     26.730     0.48000 
  0.47400     26.360     0.67000 
  0.47500     26.100     0.30000 
  0.47500     26.180     0.17000 
  0.47723     25.200     1.0000  
  0.47968     25.980     0.60000 
  0.48900     26.400     0.30000 
  0.49008     27.000     2.0000  
  0.49320     28.810     1.4000  
  0.49320     26.700     0.55000 
  0.49500     26.500     0.14000 
  0.49900     27.040     0.59000 
  0.49903     28.900     1.4000  
  0.50047     27.230     0.46000 
  0.51085     26.500     0.46000 
  0.51300     27.490     0.54000 
  0.51500     26.700     0.11000 
  0.53155     27.570     0.44000 
  0.53500     27.190     0.18000 
  0.53625     34.000     0.60000 
  0.54188     28.400     0.90000 
  0.54452     29.500     1.4000  
  0.54705     28.060     0.46000 
  0.54808     29.440     1.4000  
  0.54911     27.000     2.0000  
  0.55000     28.520     0.50000 
  0.55500     27.880     0.13000 
  0.56251     27.150     0.40000 
  0.56500     29.360     0.45000 
  0.57281     27.000     5.0000  
  0.57500     28.810     0.11000 
  0.57600     29.550     0.42000 
  0.57630     32.600     1.0000  
  0.57796     29.110     0.40000 
  0.58310     28.000     2.0000  
  0.58310     29.310     0.45000 
  0.58765     30.000     1.2000  
  0.59132     29.960     1.2000  
  0.59338     31.100     0.90000 
  0.59500     29.260     0.17000 
  0.59500     30.960     0.40000 
  0.60878     29.910     0.40000 
  0.61400     30.190     0.10000 
  0.61742     34.600     0.70000 
  0.62200     32.800     0.30000 
  0.62416     30.710     0.41000 
  0.63200     32.140     0.14000 
  0.63200     34.240     0.29000 
  0.63686     35.900     0.30000 
  0.63892     34.900     1.3000  
  0.63952     33.340     0.41000 
  0.64259     34.980     1.3000  
  0.65000     34.020     0.15000 
  0.65100     36.650     0.27000 
  0.65486     34.840     0.40000 
  0.65820     40.000     0.50000 
  0.66400     39.590     0.24000 
  0.66800     37.560     0.16000 
  0.67019     37.790     0.41000 
  0.67300     40.690     0.21000 
  0.67530     37.460     0.44000 
  0.68200     43.560     0.24000 
  0.68300     46.000     2.9000  
  0.68487     43.600     0.50000 
  0.68551     39.740     0.43000 
  0.68700     41.590     0.13000 
  0.68891     44.600     1.9000  
  0.69000     41.880     0.48000 
  0.69265     44.820     1.9000  
  0.69300     45.180     0.24000 
  0.69367     42.300     1.2000  
  0.69571     42.990     0.47000 
  0.69911     49.000     0.50000 
  0.70081     42.970     0.46000 
  0.70200     45.680     0.24000 
  0.70500     44.580     9.0E-02 
  0.71100     46.310     0.24000 
  0.71326     45.800     1.7000  
  0.71500     44.700     0.48000 
  0.71610     45.550     0.47000 
  0.71711     45.070     1.7000  
  0.71800     46.000     0.24000 
  0.71832     49.600     0.30000 
  0.72300     45.460     0.14000 
  0.72650     45.500     1.8000  
  0.73035     45.740     1.8000  
  0.73035     44.700     1.4000  
  0.73100     45.900     1.9000  
  0.73646     45.430     0.50000 
  0.73866     45.100     1.7000  
  0.73981     50.000     0.50000 
  0.74000     44.140     0.48000 
  0.74100     44.590     0.12000 
  0.74257     45.290     1.7000  
  0.74300     44.100     0.24000 
  0.75681     44.100     0.62000 
  0.75914     48.300     0.50000 
  0.76000     41.600     0.14000 
  0.76500     41.620     0.45000 
  0.76611     44.400     2.2000  
  0.77002     44.470     2.2000  
  0.77400     40.380     0.23000 
  0.77500     41.540     0.82000 
  0.77714     39.600     0.78000 
  0.77714     41.820     0.15000 
  0.77800     38.630     0.16000 
  0.77944     45.300     0.50000 
  0.78847     39.200     1.4000  
  0.79000     38.220     0.44000 
  0.79100     36.630     9.0E-02 
  0.79237     39.160     1.4000  
  0.79971     42.100     0.40000 
  0.80400     36.670     0.21000 
  0.80760     37.060     0.69000 
  0.81200     36.480     0.21000 
  0.81500     35.730     0.43000 
  0.81500     35.580     7.0E-02 
  0.81800     36.170     0.21000 
  0.81996     39.000     0.40000 
  0.82400     35.800     0.21000 
  0.83300     35.120     0.12000 
  0.84000     35.630     0.43000 
  0.84326     35.100     1.5000  
  0.84500     36.100     0.21000 
  0.84715     34.900     1.5000  
  0.85100     36.090     0.12000 
  0.85952     37.100     0.40000 
  0.86500     36.660     0.43000 
  0.86949     36.700     0.40000 
  0.87000     38.640     8.0E-02 
  0.87300     38.450     0.20000 
  0.87363     37.600     1.6000  
  0.87754     37.430     1.6000  
  0.88300     40.230     0.19000 
  0.89000     39.940     0.43000 
  0.89387     37.400     2.0000  
  0.89779     37.380     2.0000  
  0.90100     41.600     0.40000 
  0.90386     39.000     1.6000  
  0.90700     44.410     0.19000 
  0.91500     44.210     0.47000 
  0.91810     39.000     1.5000  
  0.92020     43.900     0.40000 
  0.92611     40.200     1.2200  
  0.93100     49.580     0.19000 
  0.93900     51.580     0.19000 
  0.94000     50.290     0.51000 
  0.94041     48.500     0.50000 
  0.94429     47.900     1.9000  
  0.94532     46.370     1.5000  
  0.94835     48.200     1.9000  
  0.95455     50.000     3.0000  
  0.96147     55.200     0.50000 
  0.96500     55.560     0.56000 
  0.96553     48.130     1.5000  
  0.96555     54.600     2.1000  
  0.96958     55.130     2.1000  
  0.96958     47.000     5.0000  
  0.97100     57.780     0.17000 
  0.98070     60.100     0.50000 
  0.98574     53.320     1.7200  
  0.98800     59.880     0.17000 
  0.99000     58.540     0.58000 
  0.99376     58.600     2.4000  
  0.99584     54.200     1.7900  
  0.99600     60.090     0.18000 
  0.99681     56.000     4.0000  
  0.99786     59.220     2.4000  
  1.00094     61.200     0.50000 
  1.00200     60.580     0.18000 
  1.01500     58.090     0.57000 
  1.01600     59.750     0.18000 
  1.01603     56.760     1.8400  
  1.01610     57.800     2.2000  
  1.02007     58.460     2.2000  
  1.02114     60.500     0.40000 
  1.02700     57.800     0.18000 
  1.04000     55.180     0.56000 
  1.04019     59.300     0.50000 
  1.04420     54.500     2.4000  
  1.04529     55.170     1.7900  
  1.04832     55.020     2.4000  
  1.05000     53.800     0.18000 
  1.06045     54.400     0.50000 
  1.06500     50.220     0.54000 
  1.06940     50.400     2.6000  
  1.07354     50.670     2.6000  
  1.07500     49.750     0.18000 
  1.07555     48.820     1.6300  
  1.08158     51.800     0.40000 
  1.08900     46.690     0.19000 
  1.09000     45.630     0.51000 
  1.09572     45.700     1.6200  
  1.09880     44.700     2.2000  
  1.10100     44.410     0.19000 
  1.10173     48.900     0.50000 
  1.10277     44.840     2.2000  
  1.11500     41.410     0.49000 
  1.11588     41.520     1.5300  
  1.12700     41.020     0.19000 
  1.14000     39.350     0.47000 
  1.14108     42.800     0.40000 
  1.14110     39.600     2.0000  
  1.14510     39.540     2.0000  
  1.15100     39.290     0.19000 
  1.16500     37.970     0.47000 
  1.16600     38.150     0.19000 
  1.17600     38.140     0.19000 
  1.18126     38.300     0.40000 
  1.19000     37.260     0.47000 
  1.19500     37.190     0.19000 
  1.19545     36.660     1.3000  
  1.20100     37.180     0.19000 
  1.20144     37.600     0.40000 
  1.20330     35.900     2.0000  
  1.20753     35.770     2.0000  
  1.21500     36.380     0.47000 
  1.22600     36.760     0.19000 
  1.24000     36.120     0.47000 
  1.24175     36.500     0.50000 
  1.25100     36.570     0.19000 
  1.26500     36.190     0.47000 
  1.27500     36.450     0.19000 
  1.27780     35.500     2.0000  
  1.28100     36.420     0.19000 
  1.28193     36.000     0.40000 
  1.28199     35.520     2.0000  
  1.29000     36.160     0.47000 
  1.29608     34.450     1.3200  
  1.31200     36.560     0.19000 
  1.31500     36.230     0.47000 
  1.32118     35.600     0.40000 
  1.33200     36.630     0.19000 
  1.34000     36.570     0.47000 
  1.34900     36.640     0.19000 
  1.35500     36.610     0.19000 
  1.36500     36.390     0.47000 
  1.38000     36.680     0.19000 
  1.38845     35.700     0.40000 
  1.39000     36.130     0.47000 
  1.39303     34.600     2.7000  
  1.39561     35.720     1.3500  
  1.39900     36.650     0.19000 
  1.40900     36.620     0.18000 
  1.41500     35.880     0.47000 
  1.42051     35.900     0.40000 
  1.43300     36.540     0.18000 
  1.44000     36.110     0.47000 
  1.45100     36.490     0.18000 
  1.46500     35.630     0.47000 
  1.47600     36.070     0.18000 
  1.49000     35.820     0.47000 
  1.49400     36.060     0.18000 
  1.49607     33.480     1.4100  
  1.50088     35.500     0.40000 
  1.51500     35.060     0.47000 
  1.52097     35.300     0.40000 
  1.53100     35.540     0.18000 
  1.54000     34.630     0.47000 
  1.54115     34.500     0.40000 
  1.56500     34.390     0.47000 
  1.57200     35.080     0.18000 
  1.58119     34.700     0.40000 
  1.59000     34.000     0.47000 
  1.59000     32.500     0.60000 
  1.59548     31.810     1.5000  
  1.60400     34.750     0.19000 
  1.62139     34.700     0.40000 
  1.62200     34.620     0.19000 
  1.67200     34.640     0.20000 
  1.68155     34.300     0.40000 
  1.71900     34.700     0.20000 
  1.75983     34.300     0.40000 
  1.77300     35.080     0.21000 
  1.78500     35.110     0.22000 
  1.82099     34.000     0.40000 
  1.82100     35.510     0.23000 
  1.85100     35.490     0.26000 
  1.86900     35.580     0.26000 
  1.87913     34.800     0.30000 
  1.91600     36.030     0.24000 
  1.92026     35.200     0.40000 
  1.95100     36.080     0.25000 
  1.96700     36.180     0.25000 
  2.00010     35.700     0.80000 
  2.01600     36.380     0.27000 
  2.05000     36.420     0.30000 
  2.06700     36.340     0.30000 
  2.10200     36.100     0.30000 
  2.11979     35.400     0.30000 
  2.16800     36.060     0.30000 
  2.21700     35.770     0.39000 
  2.26000     35.480     0.25000 
  2.26600     35.440     0.40000 
  2.36600     34.630     0.40000 
  2.41400     34.350     0.45000 
  2.47000     33.800     0.80000 
  2.52000     34.055     2.0E-02 
  2.52200     33.530     0.85000 
  2.56800     33.320     0.70000 
  2.61400     32.950     0.70000 
  2.62000     33.468     2.0E-02 
  2.66500     32.890     0.80000 
  2.72000     33.017     2.0E-02 
  2.75000     32.500     0.10000 
  2.75000     32.500     0.10000 
  2.82000     32.758     2.0E-02 
  2.92000     32.546     2.0E-02 
  3.02000     32.411     2.0E-02 
  3.10010     30.900     0.90000 
  3.12000     32.299     1.5E-02 
  3.15000     31.300     0.30000 
  3.22000     32.174     1.5E-02 
  3.32000     31.973     1.5E-02 
  3.40000     31.400     0.70000 
  3.42000     31.746     1.5E-02 
  3.52000     31.569     1.5E-02 
  3.62000     31.334     1.5E-02 
  3.72000     31.064     1.5E-02 
  3.82000     30.901     1.0E-02 
  3.90000     30.000     0.50000 
  3.93000     30.739     1.0E-02 
  4.03000     30.519     1.0E-02 
  4.10000     30.800     1.0000  
  4.13000     30.363     1.0E-02 
  4.13000     29.900     0.50000 
  4.23000     30.170     1.0E-02 
  4.33000     30.058     1.0E-02 
  4.43000     29.902     1.0E-02 
  4.50000     30.200     0.40000 
  4.53000     29.744     1.0E-02 
  4.63000     29.600     1.0E-02 
  4.63747     29.400     2.7000  
  4.73000     29.487     1.0E-02 
  4.83000     29.360     1.0E-02 
  4.90000     28.700     1.0000  
  4.90000     29.600     0.60000 
  4.93000     29.237     1.0E-02 
  4.95000     29.100     0.50000 
  5.03000     29.120     1.0E-02 
  5.13000     28.988     1.0E-02 
  5.23000     28.881     1.0E-02 
  5.33000     28.766     1.0E-02 
  5.44000     28.680     1.0E-02 
  5.54000     28.586     2.5E-02 
  5.64000     28.450     2.5E-02 
  5.74000     28.355     2.5E-02 
  5.75000     29.100     0.40000 
  5.84000     28.256     2.5E-02 
  5.94000     28.149     2.5E-02 
  6.00000     28.500     0.30000 
  6.04000     28.072     2.5E-02 
  6.24000     27.884     2.5E-02 
  6.44000     27.704     2.5E-02 
  6.64000     27.518     2.5E-02 
  6.65000     27.900     0.30000 
  6.84000     27.356     2.5E-02 
  6.94000     27.236     2.5E-02 
  7.00000     28.400     0.40000 
  7.00000     27.800     0.80000 
  7.19863     31.000     3.1000  
  8.00000     27.500     0.30000 
  8.00000     28.300     1.8000  
  8.00000     27.640     0.57000 
  8.05000     28.400     1.7000  
  9.20000     25.000     4.0000  
  10.00000    26.500     0.30000 
  10.00000    26.700     0.30000 
  10.00000    26.870     0.12000 
  10.00000    26.500     0.35000 
  10.00000    27.000     0.40000 
  11.20000    25.640     0.35000 
  11.44000    25.300     1.5000  
  12.00000    25.900     0.30000 
  12.00000    26.000     0.25000 
  13.00000    26.280     0.79000 
  13.30000    25.900     0.30000 
  14.00000    25.400     0.30000 
  14.00000    26.000     0.20000 
  15.00000    25.840     8.0E-02 
  15.90000    26.800     1.1000  
  16.00000    25.100     0.30000 
  16.00000    26.800     1.7000  
  16.00000    25.400     1.6000  
  17.00000    25.700     0.20000 
  18.00000    25.000     0.30000 
  18.47000    24.700     1.0000  
  18.50000    24.670     0.47000 
  20.00000    25.130     7.0E-02 
  20.00000    24.800     0.30000 
  20.00000    25.640     0.78000 
  20.00000    25.380     0.30000 
  20.00000    25.600     0.50000 
  21.00000    25.220     8.0E-02 
  21.00000    25.250     0.15000 
  23.00000    24.940     8.0E-02 
  23.00000    25.010     6.0E-02 
  25.00000    24.790     7.0E-02 
  25.00000    24.790     7.0E-02 
  25.00000    24.850     0.25000 
  27.50000    24.840     7.0E-02 
  30.00000    24.560     7.0E-02 
  30.00000    24.780     8.0E-02 
  30.00000    24.970     0.15000 
  30.00000    24.800     0.20000 
  31.20000    24.560     0.11000 
  33.50000    24.410     7.0E-02 
  33.52000    24.470     7.0E-02 
  35.00000    24.390     7.0E-02 
  35.00000    24.750     0.15000 
  35.00000    24.370     4.0E-02 
  36.80000    24.470     7.0E-02 
  37.50000    24.280     7.0E-02 
  39.48000    24.520     8.0E-02 
  39.49000    24.500     8.0E-02 
  40.00000    24.330     7.0E-02 
  40.00000    24.360     7.0E-02 
  40.00000    24.700     0.15000 
  40.00000    24.500     0.15000 
  42.50000    24.230     7.0E-02 
  45.00000    24.270     7.0E-02 
  45.00000    24.370     7.0E-02 
  45.00000    24.270     0.15000 
  45.47000    24.400     9.0E-02 
  47.50000    24.310     7.0E-02 
  50.00000    24.010     6.0E-02 
  50.00000    24.250     7.0E-02 
  50.00000    24.300     8.0E-02 
  50.00000    24.620     0.15000 
  50.00000    24.000     0.40000 
  50.00000    24.380     0.15000 
  50.00000    24.060     6.0E-02 
  50.48000    24.020     0.10000 
  52.50000    24.230     7.0E-02 
  55.00000    24.280     7.0E-02 
  55.00000    24.290     7.0E-02 
  55.00000    24.640     0.15000 
  56.71000    24.200     0.13000 
  57.50000    24.200     7.0E-02 
  59.40000    24.270     0.14000 
  60.00000    24.230     9.0E-02 
  60.00000    24.200     7.0E-02 
  60.00000    24.600     0.15000 
  60.00000    24.400     0.15000 
  62.50000    24.330     7.0E-02 
  65.00000    24.400     0.16000 
  65.00000    24.260     7.0E-02 
  65.00000    24.690     0.20000 
  70.00000    24.000     6.0E-02 
  100.00000   23.960     7.0E-02 
  100.00000   23.900     0.70000 
  100.00000   24.000     6.0E-02 
  120.00000   24.060     4.0E-02 
  147.00000   24.240     0.29000 
  150.00000   24.070     6.0E-02 
  150.00000   24.110     4.0E-02 
  170.00000   24.210     4.0E-02 
  175.00000   23.400     0.80000 
  200.00000   24.340     4.0E-02 
  200.00000   24.280     6.0E-02 
  205.00000   24.190     0.44000 
  240.00000   24.610     4.0E-02 
  280.00000   24.740     6.0E-02 
  310.00000   24.900     8.0E-02 
  340.00000   25.080     8.0E-02 
  360.00000   25.250     0.35000 
  370.00000   25.250     9.0E-02 
  585.00000   26.000     2.1000  
  595.00000   26.400     1.3000  
  640.00000   27.100     1.5000