 Int_t n1 =  111;
Double_t enx1[] = { 0.525,0.575,0.625,0.675,0.725,0.775,0.825,0.875,0.925,0.975,1.075,1.15,1.25,1.35,1.45,1.55,1.65,1.75,1.85,1.95,2.1,2.3,2.5,2.7,2.9,3.1,3.3,3.5,3.7,3.9,4.1,4.3,4.5,4.7,4.9,5.25,5.75,6.25,6.75,7.25,7.75,8.25,8.75,9.25,9.75,10.75,11.5,12.5,13.5,14.5,15.5,16.5,17.5,18.5,19.5,21,23,25,27,29,31,33,35,37,39,41,43,45,47,49,52.5,57.5,62.5,67.5,72.5,77.5,82.5,87.5,92.5,97.5,107.5,115,125,135,145,155,165,175,185,195,210,230,250,270,290,310,330,350,370,390,410,430,450,470,490,525,575,625,675,725,775 }; 
Double_t ex1[] = { 0.025,0.025,0.025,0.025,0.025,0.025,0.025,0.025,0.025,0.025,0.05,0.05,0.05,0.05,0.05,0.05,0.05,0.05,0.05,0.05,0.1,0.1,0.1,0.1,0.1,0.1,0.1,0.1,0.1,0.1,0.1,0.1,0.1,0.1,0.1,0.25,0.25,0.25,0.25,0.25,0.25,0.25,0.25,0.25,0.25,0.5,0.5,0.5,0.5,0.5,0.5,0.5,0.5,0.5,0.5,1,1,1,1,1,1,1,1,1,1,1,1,1,1,1,2.5,2.5,2.5,2.5,2.5,2.5,2.5,2.5,2.5,2.5,5,5,5,5,5,5,5,5,5,5,10,10,10,10,10,10,10,10,10,10,10,10,10,10,10,10,10,10,10,10,100.0002233, }; 
Double_t sy1[] = { 25.87,26.56,26.9,28.04,29.87,29.02,30.21,31.12,32.86,30.32,28.65,27.61,28.82,26.62,27.06,27.14,27.03,25.36,26.74,26.78,25.14,26.28,26.91,24.91,23.55,22.64,19.24,17.63,17.13,15.55,15.33,15.09,14.1,13.89,13.23,11.51,10.56,8.967,8.009,7.157,6.673,5.979,5.274,5.074,4.517,3.978,3.497,3.095,2.71,2.473,2.269,2.09,2.024,1.901,1.789,1.56,1.416,1.274,1.211,1.166,1.11,1.077,1.013,1.012,1.005,0.9687,0.9477,0.9302,0.918,0.8561,0.8838,0.8383,0.8308,0.8052,0.7606,0.7369,0.7254,0.6967,0.6551,0.6178,0.5977,0.5527,0.514,0.5071,0.471,0.4537,0.4387,0.4105,0.3992,0.398,0.3627,0.3391,0.3009,0.2772,0.2468,0.2281,0.2005,0.1788,0.1615,0.1499,0.1375,0.1304,0.1219,0.1213,0.1185,0.1094,0.09004,0.0595,0.033,0.01159,0.003044 }; 
Double_t ey1[] = { 0.5187,0.4885,0.4729,0.4732,0.4642,0.4734,0.4548,0.421,0.4591,0.4805,0.2856,0.3621,0.3198,0.3514,0.3529,0.2815,0.4294,0.3368,0.2978,0.4407,0.2025,0.3142,0.3257,0.2592,0.2944,0.2463,0.2501,0.2332,0.2293,0.2114,0.2113,0.2103,0.1978,0.1962,0.1888,0.1393,0.1215,0.07166,0.06549,0.06132,0.05824,0.05434,0.05074,0.04902,0.04715,0.03102,0.02927,0.02773,0.02646,0.02564,0.02497,0.02426,0.0244,0.024,0.02363,0.01558,0.01481,0.01413,0.01376,0.01369,0.01343,0.01333,0.01791,0.01777,0.01752,0.01716,0.01692,0.01678,0.01691,0.01632,0.01067,0.01066,0.01092,0.01101,0.01086,0.01096,0.01102,0.01102,0.01067,0.01026,0.007179,0.006915,0.006606,0.006641,0.006373,0.006329,0.00626,0.006178,0.006105,0.006076,0.004243,0.004184,0.003958,0.003789,0.003593,0.003369,0.003082,0.002938,0.002729,0.00258,0.002537,0.002464,0.002357,0.00243,0.002406,0.00145,0.001303,0.001037,0.0007465,0.0004231,0.0002233 }; 
